

Tue Sep 21 18:47:38 PDT 2021
Tue Sep 21 18:47:38 PDT 2021
Tue Sep 21 18:47:38 PDT 2021
Tue Sep 21 18:47:38 PDT 2021
Tue Sep 21 18:47:38 PDT 2021
Tue Sep 21 18:47:38 PDT 2021
Thu Jan 20 10:37:19 PST 2022
Thu Jan 20 10:37:27 PST 2022
2022-01-20 10:37:51
2022-01-20 10:41:48
2022-01-20 14:41:13
2022-01-20 20:46:00
2022-01-21 02:42:40
